…
``` r
# Check if there are any bakers in the 'bakes' dataset that do not appear in the 'bakers' dataset.
anti_join(bakes, bakers, by = "baker")
```

    ## # A tibble: 0 × 5
    ## # ℹ 5 variables: series <dbl>, episode <dbl>, baker <chr>,
    ## #   signature_bake <chr>, show_stopper <chr>

``` r
# Check if there are any bakers in the 'bakers' dataset that do not appear in the 'bakes' dataset.
anti_join(bakers, bakes, by = "baker")
```

    ## # A tibble: 22 × 6
    ##    baker_name          series baker_age baker_occupation          hometown baker
    ##    <chr>                <dbl>     <dbl> <chr>                     <chr>    <chr>
    ##  1 alice fevronia          10        28 Geography teacher         Essex    alice
    ##  2 amelia lebruin          10        24 Fashion designer          Halifax  amel…
    ##  3 antony amourdoux         9        30 Banker                    London   anto…
    ##  4 briony williams          9        33 Full-time parent          Bristol  brio…
    ##  5 dan beasley-harling      9        36 Full-time parent          London   dan  
    ##  6 dan chambers            10        32 Support worker            Rotherh… dan  
    ##  7 helena garcia           10        40 Online project manager    Leeds    hele…
    ##  8 henry bird              10        20 Student                   Durham   henry
    ##  9 imelda mccarron          9        33 Countryside recreation o… County … imel…
    ## 10 jamie finn              10        20 Part-time waiter          Surrey   jamie
    ## # ℹ 12 more rows
…
``` r
# Check if there are any bakers in the 'results' dataset that do not appear in the 'bakes' dataset.
anti_join(results, bakes, by = c("baker","series"))
```

    ## # A tibble: 258 × 5
    ##    series episode baker  technical result    
    ##     <dbl>   <dbl> <chr>      <dbl> <chr>     
    ##  1      2       1 joanne        11 IN        
    ##  2      2       2 joanne        10 IN        
    ##  3      2       3 joanne         1 IN        
    ##  4      2       4 joanne         8 IN        
    ##  5      2       5 joanne         6 IN        
    ##  6      2       6 joanne         1 STAR BAKER
    ##  7      2       7 joanne         3 IN        
    ##  8      2       8 joanne         1 WINNER    
    ##  9      9       1 antony        12 IN        
    ## 10      9       1 briony         2 IN        
    ## # ℹ 248 more rows
…
